#
# SampleTextFile.txt
#
# Author: Mark Anthony Cabilo
#
# Date created: August 2019
#

This is a sample text file.
<<<<<<< HEAD
theaAAaaaaaaaAA
=======
This is a new line.
>>>>>>> 54976fe155d79582b3af12450aee11e572e17581
